{
	"name": "kde-plasma-integration",
	"sources": [
		{
			"type": "git",
			"url": "git://anongit.kde.org/plasma-integration.git",
			"branch": "Plasma/5.14"
		},
		{
			"type": "patch",
			"path": "patch/kde-plasma-integration-disable-kio.patch"
		},
		{
			"type": "patch",
			"path": "patch/kde-plasma-integration-disable-qtquickcontrols2-hack.patch"
		}
	],
	
	"buildsystem": "cmake-ninja",
	"builddir": true,
	"config-opts": [
		"-DQt5Test_FOUND=OFF",
		"-DBUILD_FILE_DIALOG_KIO=off",
		"-DCMAKE_DISABLE_FIND_PACKAGE_FontNotoSans=true",
		"-DCMAKE_DISABLE_FIND_PACKAGE_FontHack=true",
		"-DCMAKE_INSTALL_LIBDIR=lib"
	],
	"cleanup": [
		"/include",
		"/lib/cmake",
		"/share/kconf_update"
	],
	
	"@depends": [
		"qt5-base.json",
		"extra-cmake-modules.json",
		"kf5-config.json",
		"kf5-config-widgets.json",
		"kf5-icon-themes.json",
		"kf5-notifications.json",
		"kf5-i18n.json",
		"kf5-wayland.json",
		"kf5-widgets-addons.json",
		"kf5-window-system.json",
		"kde-style-breeze.json"
	]
}
