{
	"name": "kde-framework-integration",
	"sources": [
		{
			"type": "git",
			"url": "git://anongit.kde.org/frameworkintegration.git",
			"branch": "v5.52.0"
		},
		{
			"type": "patch",
			"path": "patch/kde-framework-integration-kpackage-handlers-optional.patch"
		}
	],
	
	"buildsystem": "cmake-ninja",
	"builddir": true,
	"config-opts": [
		"-DBUILD_KPACKAGE_INSTALL_HANDLERS=OFF",
		"-DCMAKE_INSTALL_LIBDIR=lib"
	],
	"cleanup": [
		"/include",
		"/lib/cmake",
		"/share/kf5/infopage"
	],
	
	"@depends": [
		"qt5-base.json",
		"extra-cmake-modules.json",
		"kf5-config.json",
		"kf5-config-widgets.json",
		"kf5-icon-themes.json",
		"kf5-notifications.json",
		"kf5-i18n.json"
	]
}
