{
	"name": "kde-style-breeze",
	"sources": [
		{
			"type": "git",
			"url": "git://anongit.kde.org/breeze.git",
			"branch": "Plasma/5.14"
		},
		{
			"type": "patch",
			"path": "patch/kde-style-breeze-disable-kpackage-generator.patch"
		}
	],
	
	"buildsystem": "cmake-ninja",
	"config-opts": [
		"-DWITH_DECORATIONS=OFF",
		"-DWITH_WALLPAPERS=OFF",
		"-DWITH_KPACKAGE_INSTALL=OFF",
		"-DCMAKE_INSTALL_LIBDIR=lib"
	],
	"cleanup": [
		"/include",
		"/lib/cmake",
		"/lib/qml",
		"/share/icons/breeze_cursors",
		"/share/icons/Breeze_Snow",
		"/share/kconf_update",
		"/share/kservices5",
		"/share/metainfo",
		"/share/plasma/look-and-feel",
		"/share/QtCurve"
	],
	
	"@depends": [
		"qt5-base.json",
		"extra-cmake-modules.json",
		"kf5-config.json",
		"kf5-config-widgets.json",
		"kf5-gui-addons.json",
		"kf5-i18n.json",
		"kf5-window-system.json",
		"kde-framework-integration.json"
	]
}
