{
	"name": "kf5-i18n",
	"sources": [
		{
			"type": "git",
			"url": "git://anongit.kde.org/ki18n.git",
			"branch": "v5.52.0"
		}
	],

	"buildsystem": "cmake-ninja",
	"config-opts": [
		"-DBUILD_TESTING=OFF",
		"-DBUILD_WITH_QML=OFF",
		"-DCMAKE_INSTALL_LIBDIR=lib"
	],
	"cleanup": [
		"/include",
		"/lib/cmake"
	],

	"@depends": [
		"qt5-base.json",
		"extra-cmake-modules.json"
	]
}
