{
	"name": "qt5-plasma-integration-modules",
	"buildsystem": "simple",
	"build-commands": [],
	"modules": [
		"./qt5-tools.json",
		"./qt5-x11extras.json",

		"./kf5-archive.json",
		"./kf5-core-addons.json",
		"./kf5-codecs.json",
		"./kf5-config.json",
		"./kf5-gui-addons.json",
		"./kf5-i18n.json",
		"./kf5-item-views.json",
		"./kf5-wayland.json",
		"./kf5-widgets-addons.json",
		"./kf5-window-system.json",

		"./kf5-auth.json",
		"./kf5-doc-tools.json",
		"./kf5-notifications.json",

		"./kf5-config-widgets.json",

		"./kf5-icon-themes.json",

		"./kde-framework-integration.json",
		"./kde-style-breeze.json",
		"./kde-plasma-integration.json"
	],
	"@depends": [
		"./qt5-standard.json"
	]
}
